Modeling patient-level outcomes
…
L_df = map_dfr(df_nest$data, extract_univariate, 
               marksvar = "immune", mark1 = "immune",
               r_vec = c(0, 50, 100))
## Warning: data contain duplicated points
## Warning: 1 point was rejected as lying outside the specified window
## Warning: data contain duplicated points
## Warning: 1 point was rejected as lying outside the specified window

L_df
## # A tibble: 384 × 5
##    subject_id     r     L   csr Ldiff
##         <dbl> <dbl> <dbl> <dbl> <dbl>
##  1         68     0   0       0   0  
##  2         68    50  83.5    50  33.5
##  3         68   100 138.    100  37.6
##  4         69     0   0       0   0  
##  5         69    50 114.     50  64.1
##  6         69   100 176.    100  76.1
##  7         70     0   0       0   0  
##  8         70    50  62.9    50  12.9
##  9         70   100 115.    100  15.4
## 10         71     0   0       0   0  
## # ℹ 374 more rows
…
Lbivariate_df = map_dfr(df_bivariate$data, extract_bivariate, 
                        marksvar = "phenotype", 
                        r_vec = c(0, 50, 100))

Lbivariate_df
## # A tibble: 198 × 5
##    subject_id     r     L   csr  Ldiff
##         <dbl> <dbl> <dbl> <dbl>  <dbl>
##  1         68     0   0       0  0    
##  2         68    50  64.3    50 14.3  
##  3         68   100  99.3   100 -0.730
##  4         69     0   0       0  0    
##  5         69    50  57.6    50  7.61 
##  6         69   100 141.    100 41.1  
##  7         70     0   0       0  0    
##  8         70    50  49.4    50 -0.565
##  9         70   100 140.    100 39.8  
## 10         72     0   0       0  0    
## # ℹ 188 more rows
…
