Tools and software for functional data analysis of multiplexed imaging data
…
Running this code will calculate univariate Ripley’s K function for
immune cells in each image, and will store these spatial summary
functions in the univariate_summaries slot of the S3
mxf object. To access this slot and view the extracted
summary functions, type:

mxf@univariate_summaries$Kest
## # A tibble: 25,728 × 6
##    sample_id     r sumfun    csr fundiff `immune cells`
##        <dbl> <dbl>  <dbl>  <dbl>   <dbl>          <int>
##  1        68     0     0    0       0               198
##  2        68     1     0    3.14   -3.14            198
##  3        68     2     0   12.6   -12.6             198
##  4        68     3   536.  28.3   508.              198
##  5        68     4  1010.  50.3   960.              198
##  6        68     5  1446.  78.5  1368.              198
##  7        68     6  1903. 113.   1790.              198
##  8        68     7  2757. 154.   2603.              198
##  9        68     8  2946. 201.   2745.              198
## 10        68     9  3231. 254.   2976.              198
## # ℹ 25,718 more rows
…
